Plagen cytoeffect LLMM
…
Some more MCMC diagnostics. According to empirically findings, Rhat > 1.1 is usually indicative of problems in the fit.

pars = c("beta","sigma_donor","L_donor","z_donor")
tb = summary(obj$fit_mcmc, 
             pars = pars)$summary %>% 
  as.tibble(rownames = "pars", .before = 1) %>% 
  select(pars, n_eff, Rhat)
tb %<>% na.omit() # Stan fills upper triangle with zeros
tb %>% arrange(n_eff)

## # A tibble: 719 x 3
##    pars         n_eff  Rhat
##    <chr>        <dbl> <dbl>
##  1 beta[1]       649.  1.03
##  2 z_donor[1,1]  683.  1.02
##  3 beta[2]       688.  1.03
##  4 z_donor[2,1]  696.  1.02
##  5 beta[10]      697.  1.02
##  6 z_donor[3,1]  725.  1.03
##  7 z_donor[1,2]  786.  1.02
##  8 beta[5]       795.  1.02
##  9 beta[3]       827.  1.02
## 10 z_donor[2,2]  863.  1.02
## #  with 709 more rows

tb %>% arrange(desc(Rhat))

## # A tibble: 719 x 3
##    pars            n_eff  Rhat
##    <chr>           <dbl> <dbl>
##  1 beta[1]          649.  1.03
##  2 beta[2]          688.  1.03
##  3 z_donor[3,1]     725.  1.03
##  4 sigma_donor[29]  880.  1.03
##  5 sigma_donor[1]   941.  1.03
##  6 z_donor[2,1]     696.  1.02
##  7 z_donor[1,2]     786.  1.02
##  8 beta[10]         697.  1.02
##  9 z_donor[1,1]     683.  1.02
## 10 z_donor[2,2]     863.  1.02
## #  with 709 more rows
…
